Name,WeightClassKg,Division,Best3SquatKg,Best3BenchKg,Best3DeadliftKg,TotalKg,Sex,Event,Equipment,Place
Katy Todd,44,F-T,44.91,37.65,84.82,167.38,F,SBD,Single-ply,1
Lisa Garcia,44,F-T,32.66,34.93,84.82,152.41,F,SBD,Single-ply,2
Holly Bahnick,52,F-T,57.61,29.94,72.57,160.12,F,SBD,Single-ply,1
Michelle Bahnick,60,F-T,47.63,37.65,92.53,177.81,F,SBD,Single-ply,1
Trisha Ellingsworth,75,F-T,82.55,44.91,125.19,252.65,F,SBD,Single-ply,1
Sabrina Freed,82.5,F-T,140.16,84.82,152.41,377.39,F,SBD,Single-ply,1
Jennifer Triplett,90,F-T,142.43,74.84,137.44,354.71,F,SBD,Single-ply,1
Holly Oxford,90,F-O,165.11,97.52,172.37,435,F,SBD,Single-ply,1
Sami Lee Chow,82.5,F-O,170.1,89.81,165.11,425.02,F,SBD,Single-ply,1
Many Cronin,75,F-O,110.22,69.85,125.19,305.27,F,SBD,Single-ply,1
Trisha Ellingsworth,75,F-O,82.55,44.91,125.19,252.65,F,SBD,Single-ply,2
Rachel Churchuard,60,F-O,140.16,69.85,157.4,367.41,F,SBD,Single-ply,1
Patricia Tidmarsh,48,F-O,120.2,47.63,127.46,295.29,F,SBD,Single-ply,1
Candy Louprasong,44,F-O,49.9,27.67,62.6,140.16,F,SBD,Single-ply,1
Terry Lee,67.5,F-M2,112.49,72.57,130.18,315.25,F,SBD,Single-ply,1
Holly Oxford,90,F-M1,165.11,97.52,172.37,435,F,SBD,Single-ply,1
Elliott Souza,67.5,M-T,92.53,64.86,137.44,294.84,M,SBD,Single-ply,1
Brian Huffer,67.5,M-T,62.6,42.64,79.83,185.07,M,SBD,Single-ply,2
Darrell Bouchardt,75,M-T,132.45,74.84,157.4,364.69,M,SBD,Single-ply,1
Brandon Spence,82.5,M-T,99.79,67.59,147.42,314.79,M,SBD,Single-ply,1
Aaron Clovsky,82.5,M-T,99.79,79.83,125.19,304.81,M,SBD,Single-ply,2
Ken Umetsu,82.5,M-Jr,170.1,110.22,170.1,450.42,M,SBD,Single-ply,1
Jake Bolam,82.5,M-Jr,,,,,M,SBD,Single-ply,DQ
Shane Glassenap,100,M-Jr,177.35,125.19,227.7,530.25,M,SBD,Single-ply,1
Arron Brown,110,M-Jr,140.16,140.16,200.03,480.35,M,SBD,Single-ply,1
Raymond Engle,110,M-Jr,125.19,104.78,150.14,380.11,M,SBD,Single-ply,2
Christopher Green,67.5,M-O,187.33,115.21,234.96,537.51,M,SBD,Single-ply,1
Leamon Woodley,82.5,M-O,307.54,165.11,307.54,780.18,M,SBD,Single-ply,1
Jonathon Cruz,82.5,M-O,222.71,150.14,249.93,622.78,M,SBD,Single-ply,2
Eric Dodd,82.5,M-O,142.43,99.79,200.03,442.25,M,SBD,Single-ply,3
Duane Travis,82.5,M-O,,,,,M,SBD,Single-ply,DQ
Joel Legard,90,M-O,254.92,157.4,272.61,684.92,M,SBD,Single-ply,1
Robert Heck,100,M-O,304.81,170.1,304.81,779.73,M,SBD,Single-ply,1
John Morasco,100,M-O,205.02,177.35,239.95,622.33,M,SBD,Single-ply,3
Hrland Barrett,100,M-O,244.94,157.4,237.68,640.02,M,SBD,Single-ply,2
Ted Depoe,110,M-O,289.85,200.03,287.58,777.46,M,SBD,Single-ply,1
Nino Piscitelli,125,M-O,,,,,M,SBD,Single-ply,DQ
Vincent Eldrige,125+,M-O,252.65,192.32,304.81,749.79,M,SBD,Single-ply,1
Leo Mattoni,75,M-M1,202.3,142.43,244.94,589.67,M,SBD,Single-ply,1
Bruse Wellborn,100,M-M1,175.09,132.45,195.04,502.58,M,SBD,Single-ply,1
John Dietz,100,M-M1,172.37,140.16,150.14,462.66,M,SBD,Single-ply,2
Roger Hendrix,125,M-M1,322.5,207.29,319.78,849.58,M,SBD,Single-ply,1
Gerald Young,125,M-M1,170.1,197.31,237.68,605.09,M,SBD,Single-ply,2
Leamon Woodley,82.5,M-M2,307.54,165.11,307.54,780.18,M,SBD,Single-ply,1
Mikhail Brusser,75,M-M3,89.81,125.19,135.17,350.17,M,SBD,Single-ply,1
Tom Griffin,82.5,M-M3,,,,,M,SBD,Single-ply,DQ
Brad Coury,100,M-M3,242.67,142.43,242.67,627.77,M,SBD,Single-ply,1
Steve Slavens,100,M-M3,167.38,130.18,205.02,502.58,M,SBD,Single-ply,2
Gary Smart,125,M-M5,205.02,150.14,200.03,555.2,M,SBD,Single-ply,1
Hank Spencer,52,M-T,,79.83,,79.83,M,B,Single-ply,1
Ben Ingels,67.5,M-T,,,,,M,B,Single-ply,DQ
Andres Valleza,67.5,M-Jr,,125.19,,125.19,M,B,Single-ply,1
Rob Bondurant,75,M-O,,145.15,,145.15,M,B,Single-ply,1
Caleb Willey,82.5,M-T,,145.15,,145.15,M,B,Single-ply,1
Nike Santora,90,M-M4,,137.44,,137.44,M,B,Single-ply,1
John Luckie,100,M-O,,185.07,,185.07,M,B,Single-ply,1
Jason Rodig,100,M-O,,,,,M,B,Single-ply,DQ
Steadman Mathis,110,M-O,,207.29,,207.29,M,B,Single-ply,1
Steadman Mathis,110,M-M2,,207.29,,207.29,M,B,Single-ply,1
Mike Murphy,110,M-M3,,147.42,,147.42,M,B,Single-ply,1
Mike Kromer,125+,M-O,,239.95,,239.95,M,B,Single-ply,1
James Crawford,125+,M-O,,227.7,,227.7,M,B,Single-ply,2
Mike Murphy,110,M-M3,,,215,215,M,D,Single-ply,1
Matt Foreman,125,M-O,,,302.55,302.55,M,D,Single-ply,1
Jim Westling,125,M-O,,,247.66,247.66,M,D,Single-ply,2
Ron West,125,M-M1,,,249.93,249.93,M,D,Single-ply,1
