Place,Name,Division,BodyweightKg,Squat1Kg,Squat2Kg,Squat3Kg,Best3SquatKg,Bench1Kg,Bench2Kg,Bench3Kg,Best3BenchKg,Bench4Kg,Deadlift1Kg,Deadlift2Kg,Deadlift3Kg,Best3DeadliftKg,Deadlift4Kg,TotalKg,WeightClassKg,Sex,CyrillicName,BirthYear,Tested,Equipment,Event
1,Tetyana Red'ko,J,51,85,-95,-95,85,-45,-45,45,45,,90,100,105,105,,235,52,F,Тетяна Редько,1993,Yes,Wraps,SBD
1,Kateryna Ivasenko,O,51.3,75,80,-85,80,35,40,-42.5,40,,82.5,90,95,95,,215,52,F,Катерина Івасенко,1986,Yes,Wraps,SBD
1,Viktoriya Sokolova,J,55.1,95,100,105,105,65,72.5,75,75,,-117.5,117.5,125,125,,305,56,F,Вікторія Соколова,1989,Yes,Wraps,SBD
1,Viktoriya Sokolova,O,55.1,95,100,105,105,65,72.5,75,75,,-117.5,117.5,125,125,,305,56,F,Вікторія Соколова,1989,Yes,Wraps,SBD
2,Svitlana Nesterova,O,54.8,75,-80,80,80,45,47.5,50,50,,80,90,-95,90,,220,56,F,Світлана Нестерова,1975,Yes,Wraps,SBD
1,Yevgeniya Karpovych,T3,64.3,80,-87.5,87.5,87.5,52.5,57.5,-60,57.5,,-80,80,-105,80,,225,67.5,F,Євгенія Карпович,1995,Yes,Wraps,SBD
1,Inna Danylyuk,O,103.4,105,115,-125,115,52.5,57.5,62.5,62.5,,135,150,160,160,,337.5,90+,F,Інна Данилюк,1977,Yes,Wraps,SBD
1,Maxym Popovych,T2,51,90,100,105,105,70,77.5,82.5,82.5,,120,130,135,135,,322.5,52,M,Максим Попович,1996,Yes,Wraps,SBD
1,Yevgen Bondar,J,59.2,102.5,112.5,115,115,75,-82.5,82.5,82.5,,145,152.5,-157.5,152.5,,350,60,M,Євген Бондар,1990,Yes,Wraps,SBD
1,Sergiy Chernov,O,59,130,140,147.5,147.5,100,105,-112.5,105,,190,-205.5,-205.5,190,,442.5,60,M,Сергій Чернов,1986,Yes,Wraps,SBD
1,Maxym Kompaniets,T2,66.5,130,140,-145,140,80,85,92.5,92.5,,155,165,175,175,,407.5,67.5,M,Максим Компанієць,1997,Yes,Wraps,SBD
2,Roman Kaptur,T2,62.5,100,110,120,120,85,95,-100,95,,130,-140,-140,130,,345,67.5,M,Роман Каптур,1996,Yes,Wraps,SBD
1,Volodymyr Baranovskyy,T3,66.1,-160,165,170,170,105,110,115,115,,205,210,-217.5,210,,495,67.5,M,Володимир Барановський,1993,Yes,Wraps,SBD
2,Bogdan Marakhovskyy,T3,64,130,135,140,140,-80,85,-90,85,,145,155,,155,,380,67.5,M,Богдан Мараховський,1993,Yes,Wraps,SBD
3,Dmytro Ustychenko,T3,66.2,115,125,-127.5,125,70,80,85,85,,160,170,-175,170,,380,67.5,M,Дмитро Устиченко,1994,Yes,Wraps,SBD
1,Sergiy Vimba,J,66.3,110,120,127.5,127.5,85,90,-97.5,90,,152.5,162.5,167.5,167.5,,385,67.5,M,Сергій Вімба,1989,Yes,Wraps,SBD
1,Igor Pavlov #1,O,67.5,185,190,195,195,130,135,140,140,,215,225,,225,,560,67.5,M,Ігорь Павлов,1987,Yes,Wraps,SBD
2,Anton Zlobin,O,67.3,142.5,150,155,155,102.5,112.5,,112.5,,212.5,-222.5,222.5,222.5,,490,67.5,M,Антон Злобін,1987,Yes,Wraps,SBD
3,Ivan Sulima,O,67.5,-140,150,160,160,115,120,-125,120,,200,210,-220,210,,490,67.5,M,Іван Сулима,1988,Yes,Wraps,SBD
4,Stanislav Shidlovskyy,O,66,120,130,-140,130,95,100,102.5,102.5,,140,150,155,155,,387.5,67.5,M,Станіслав Шидловський,1984,Yes,Wraps,SBD
1,Anatoliy Bochkovskyy,M4,67,147.5,167.5,,167.5,87.5,,,87.5,,187.5,207.5,,207.5,,462.5,67.5,M,Анатолій Бочковський,1954,Yes,Wraps,SBD
1,Evgeniy Boloban,T2,73.2,175,190,200,200,115,125,130,130,,165,180,-190,180,,510,75,M,Євгеній Болобан,1996,Yes,Wraps,SBD
2,Dmytro Dyachok,T2,72.6,125,140,150,150,80,90,92.5,92.5,,175,195,200,200,,442.5,75,M,Дмитро Дячок,1997,Yes,Wraps,SBD
3,Roman Tristan,T2,74.6,-130,145,-150,145,90,102.5,-107.5,102.5,,175,-195,195,195,,442.5,75,M,Роман Тристан,1997,Yes,Wraps,SBD
4,Kostyantyn Varlan,T2,74.8,125,135,-137.5,135,90,95,-100,95,,150,160,-175,160,,390,75,M,Костянтин Варлан,1996,Yes,Wraps,SBD
1,Semen Skryzhevskyy,T3,74.8,90,100,115,115,-75,75,80,80,,150,160,170,170,,365,75,M,Семен Скрижевський,1994,Yes,Wraps,SBD
DQ,Yevgen Kravets,T3,73.9,150,155,-160,155,-110,-110,-110,,,,,,,,,75,M,Євген Кравець,1994,Yes,Wraps,SBD
1,Yevgen Kovalenko,J,74.4,160,-165,165,165,120,130,135,135,,210,-225,-225,210,,510,75,M,Євген Коваленко,1992,Yes,Wraps,SBD
2,Viktor Mikhnenko,J,74.8,155,162.5,170,170,112.5,117.5,-120,117.5,,165,175,182.5,182.5,,470,75,M,Віктор Міхненко,1991,Yes,Wraps,SBD
3,Yaroslav Kochubey,J,74.3,150,160,-170,160,100,110,112.5,112.5,,160,180,-187.5,180,,452.5,75,M,Ярослав Кочубей,1991,Yes,Wraps,SBD
4,Sergiy Tsymbal,J,72.9,120,125,130,130,90,-95,-95,90,,190,200,202.5,202.5,,422.5,75,M,Сергій Цимбал,1992,Yes,Wraps,SBD
1,Igor Nikolaenko,O,71.9,180,190,200,200,135,145,-150,145,,200,215,-220,215,,560,75,M,Ігор Ніколаєнко,1988,Yes,Wraps,SBD
2,Volodymyr Kirsa,O,72.6,140,-150,-150,140,-110,115,120,120,,180,-200,,180,,440,75,M,Володимир Кірса,1980,Yes,Wraps,SBD
1,Andrey Koloda,T2,80.5,160,190,195,195,115,130,135,135,,215,230,235,235,242.5,565,82.5,M,Андрій Колода,1996,Yes,Wraps,SBD
2,Pavlo Grabar,T2,81.8,160,175,190,190,105,115,120,120,,200,215,-225,215,,525,82.5,M,Павло Грабар,1995,Yes,Wraps,SBD
DQ,Volodymyr Moiseev,T2,79.2,-165,165,,165,-125,-125,-125,,,,,,,,,82.5,M,Володимир Моїсеєв,1995,Yes,Wraps,SBD
1,Yevgen Pysarenko,J,81.5,165,-175,175,175,115,125,-130,125,,210,230,235,235,,535,82.5,M,Євген Писаренко,1992,Yes,Wraps,SBD
2,Oleg Derlyuk,J,79.8,170,180,190,190,100,110,112.5,112.5,,200,-210,-210,200,,502.5,82.5,M,Олег Дерлюк,1992,Yes,Wraps,SBD
3,Eldar Yefymenko,J,78.8,140,145,150,150,100,105,-107.5,105,,180,-190,190,190,,445,82.5,M,Ельдар Єфименко,1992,Yes,Wraps,SBD
1,Eduard Dolgov,O,82.1,240,250,,250,165,175,180,180,,260,-270,-270,260,,690,82.5,M,Едуард Долгов,1987,Yes,Wraps,SBD
2,Yaroslav Litvinenko,O,81.6,190,205,-220,205,135,140,-142.5,140,,230,240,-245,240,,585,82.5,M,Ярослав Литвиненко,1976,Yes,Wraps,SBD
3,Sergiy Bogaychuk,O,82,165,175,182.5,182.5,-125,132.5,137.5,137.5,,180,190,-195,190,,510,82.5,M,Сергій Богайчук,1985,Yes,Wraps,SBD
4,Petro Kochkin,O,82,145,160,170,170,115,125,-130,125,,180,200,210,210,,505,82.5,M,Петро Кочкін,1979,Yes,Wraps,SBD
5,Igor Seredyuk,O,80.4,160,165,170,170,100,105,110,110,,200,-210,-210,200,,480,82.5,M,Ігор Середюк,1984,Yes,Wraps,SBD
1,Oleksandr Zhischenko,T1,84.8,120,130,140,140,80,90,95,95,,120,130,140,140,,375,90,M,Олександр Жищенко,1997,Yes,Wraps,SBD
1,Vyacheslav Yakovlev #2,T3,89.4,175,190,-200,190,140,-147.5,-147.5,140,,200,220,235,235,,565,90,M,В'ячеслав Яковлєв,1993,Yes,Wraps,SBD
1,Stepan Sagirov,J,88.7,200,210,220,220,140,150,155,155,,215,225,235,235,240,610,90,M,Степан Сагіров,1992,Yes,Wraps,SBD
2,Pavlo Safonov,J,88.8,180,190,-200,190,115,122.5,130,130,,165,-180,-195,165,,485,90,M,Павло Сафонов,1990,Yes,Wraps,SBD
1,Andriy Galkevich,O,88.7,210,230,250,250,155,-170,170,170,,230,250,-260,250,,670,90,M,Андрій Галькевич,1971,Yes,Wraps,SBD
2,Yevgen Baydan,O,89.2,190,200,-205,200,137.5,145,150,150,,220,240,250,250,,600,90,M,Євген Байдан,1987,Yes,Wraps,SBD
3,Oleksandr Bandura,O,87.2,175,190,-202.5,190,120,125,130,130,,225,240,-250,240,,560,90,M,Олександр Бандура,1985,Yes,Wraps,SBD
4,Timur Semenov,O,88.7,160,180,200,200,120,130,-140,130,,-200,230,-245,230,,560,90,M,Тімур Семенов,1988,Yes,Wraps,SBD
1,Andriy Galkevich,M1,88.7,210,230,250,250,155,-170,170,170,,230,250,-260,250,,670,90,M,Андрій Галькевич,1971,Yes,Wraps,SBD
1,Viktor Vdovkin,M5,90,150,,,150,90,,,90,,180,,,180,,420,90,M,Віктор Вдовкін,1949,Yes,Wraps,SBD
1,Serhii Haidrykh,T3,97.7,220,235,240,240,130,140,142.5,142.5,,230,240,-250,240,,622.5,100,M,Сергій Гайдрих,1993,Yes,Wraps,SBD
1,Pavlo Ivanov,J,95.6,-200,210,-225,210,-160,165,-175,165,,-245,250,260,260,,635,100,M,Павло Іванов,1990,Yes,Wraps,SBD
2,Yevgen Yeremin,J,99,200,215,225,225,120,130,-135,130,,230,245,255,255,,610,100,M,Євген Єрьомін,1993,Yes,Wraps,SBD
3,Oleksiy Davydov,J,95.6,170,177.5,-185,177.5,135,140,142.5,142.5,,225,237.5,247.5,247.5,,567.5,100,M,Олексій Давидов,1989,Yes,Wraps,SBD
4,Pavlo Lotash,J,96,170,190,200,200,140,145,147.5,147.5,,200,210,220,220,,567.5,100,M,Павло Лоташ,1992,Yes,Wraps,SBD
5,Andriy Moroz,J,97,160,170,175,175,125,135,-140,135,,230,240,250,250,,560,100,M,Андрій Мороз,1989,Yes,Wraps,SBD
6,Kostyantyn Platonov,J,96.3,140,155,-162.5,155,120,130,-140,130,,180,200,230,230,,515,100,M,Костянтин Платонов,1989,Yes,Wraps,SBD
1,Vitaliy Buryak,O,99.6,-235,-235,235,235,155,-160,-160,155,,270,280,-290,280,,670,100,M,Віталій Буряк,1978,Yes,Wraps,SBD
2,Roman Dmitrenko,O,97.3,190,200,210,210,145,-155,160,160,,240,250,265,265,,635,100,M,Роман Дмитренко,1973,Yes,Wraps,SBD
3,Sergiy Rusinchuk,O,97,185,200,205,205,125,135,142.5,142.5,,230,250,260,260,,607.5,100,M,Сергій Русинчук,1981,Yes,Wraps,SBD
4,Maksim Gorunov,O,94,-180,180,200,200,135,145,150,150,,-200,200,220,220,,570,100,M,Максим Горунов,1986,Yes,Wraps,SBD
5,Vladislav Prosyanik,O,97.2,170,-180,180,180,140,145,150,150,,200,210,230,230,,560,100,M,Владислав Просяник,1978,Yes,Wraps,SBD
DQ,Volodymyr Andreev,O,96.2,-170,,,,,,,,,,,,,,,100,M,Володимир Андреєв,1973,Yes,Wraps,SBD
1,Volodymyr Ogloblin,M2,100,210,220,-230,220,125,130,-135,130,,240,250,255,255,,605,100,M,Володимир Оглоблін,1965,Yes,Wraps,SBD
1,Sergiy Makarovych,J,108.1,250,260,265,265,165,170,175,175,,270,280,290,290,,730,110,M,Сергій Макарович,1991,Yes,Wraps,SBD
2,Vitaliy Sadovyy,J,105,200,215,225,225,145,155,162.5,162.5,,220,240,252.5,252.5,,640,110,M,Віталій Садовий,1991,Yes,Wraps,SBD
3,Ruslan Matyash,J,106,200,207.5,-212.5,207.5,155,162.5,-167.5,162.5,,250,-270,270,270,,640,110,M,Руслан Матяш,1992,Yes,Wraps,SBD
1,Sergiy Makarovych,O,108.1,250,260,265,265,165,170,175,175,,270,280,290,290,,730,110,M,Сергій Макарович,1991,Yes,Wraps,SBD
2,Vitaliy Alekseev #1,O,103.2,230,240,,240,155,165,-170,165,,290,305,-325,305,,710,110,M,Віталій Алексеєв,1988,Yes,Wraps,SBD
3,Volodymyr Lesnyak,O,107.1,150,160,-175,160,115,125,130,130,,150,160,170,170,,460,110,M,Володимир Лесняк,1977,Yes,Wraps,SBD
1,Sergiy Zhabitenko,M3,110,190,210,220,220,135,-145,-145,135,,-180,200,240,240,,595,110,M,Сергій Жабітенко,1959,Yes,Wraps,SBD
1,Yuriy Malanichev,M4,108,230,260,,260,140,150,-160,150,,260,280,305,305,,715,110,M,Юрій Маланічев,1956,Yes,Wraps,SBD
1,Rodion Kuprin,O,114.2,150,160,170,170,145,155,-160,155,,200,210,-220,210,,535,125,M,Родіон Купрін,1981,Yes,Wraps,SBD
1,Anatoliy Omelchenko,M1,120.5,250,270,-280,270,160,167.5,-172.5,167.5,,270,,,270,,707.5,125,M,Анатолій Омельченко,1969,Yes,Wraps,SBD
1,Mykola Bryndulya,M4,111.2,-140,160,-165,160,110,120,130,130,,150,175,190,190,,480,125,M,Микола Бриндуля,1953,Yes,Wraps,SBD
1,Maxym Belnitskyy,T3,139,-190,200,220,220,110,120,-125,120,,180,200,-210,200,,540,140,M,Максим Бельницький,1993,Yes,Wraps,SBD
1,Oleksandr Shvab,O,128,150,,,150,130,140,,140,,200,,,200,,490,140,M,Олександр Шваб,1976,Yes,Wraps,SBD
1,Viktoriya Rozhanska,O,66,50,60,-67.5,60,40,45,47.5,47.5,,55,70,-87.5,70,,177.5,67.5,F,Вікторія Рожанська,1978,No,Wraps,SBD
1,Roman Romaskevich,J,67.5,140,150,157.5,157.5,107.5,-115,117.5,117.5,,160,175,-185,175,,450,67.5,M,Роман Ромаскевич,1992,No,Wraps,SBD
1,Mykola Bilozerov,O,67.3,-175,175,185,185,102.5,-110,110,110,,195,210,-222.5,210,,505,67.5,M,Николай Белозеров,1982,No,Wraps,SBD
2,Vladimir Koval,O,66,115,130,135,135,100,-110,-110,100,,170,185,200,200,,435,67.5,M,Володимир Коваль,1980,No,Wraps,SBD
1,Yevgen Demyanchuk,J,68.8,160,-175,175,175,130,140,145,145,,160,175,185,185,,505,75,M,Євген Дем'янчук,1991,No,Wraps,SBD
2,Ruslan Subotin,J,72.5,100,120,-130,120,85,95,-102.5,95,,140,,,140,,355,75,M,Руслан Суботин,1989,No,Wraps,SBD
1,Arkadiy Shalokha,O,75,250,265,,265,170,177.5,182.5,182.5,,270,-290,290,290,-302.5,737.5,75,M,Аркадий Шалоха,1983,No,Wraps,SBD
2,Ruslan Subotin,O,72.5,100,120,-130,120,85,95,-102.5,95,,140,,,140,,355,75,M,Руслан Суботин,1989,No,Wraps,SBD
1,Peter Kravtsov,M6,75,150,,,150,90,,,90,,170,,,170,,410,75,M,,1946,No,Wraps,SBD
1,Ivan Tymchak,T3,79.3,-135,140,155,155,100,107.5,-112.5,107.5,,170,180,-190,180,,442.5,82.5,M,Іван Тимчак,1993,No,Wraps,SBD
1,Oleksiy Rizhenko,J,81.8,145,-160,-170,145,115,122.5,130,130,,160,170,-180,170,,445,82.5,M,Олексій Риженко,1992,No,Wraps,SBD
2,Sergiy Popov,J,79.7,130,140,-145,140,107.5,112.5,115,115,,140,-160,160,160,,415,82.5,M,Сергій Попов,1989,No,Wraps,SBD
1,Artur Dubinin,O,76.5,180,190,200,200,145,150,155,155,,230,240,-250,240,,595,82.5,M,Артур Дубінін,1987,No,Wraps,SBD
2,Denys Fesenko,O,82.5,205,212.5,-217.5,212.5,145,-152.5,-152.5,145,,205,220,-232.5,220,,577.5,82.5,M,Денис Фесенко,1984,No,Wraps,SBD
3,Vasyl' Mykhalskyy,O,82.4,180,-190,-190,180,-120,-130,130,130,,220,235,,235,,545,82.5,M,Василь Михальський,1980,No,Wraps,SBD
4,Oleg Goncharuk,O,81.5,-170,170,-180,170,165,-170,-170,165,,195,-200,,195,,530,82.5,M,Олег Гончарук,1989,No,Wraps,SBD
DQ,Volodymyr Nakhankov,O,81.7,-230,-240,-240,,,,,,,,,,,,,82.5,M,Володимир Наханьков,1988,No,Wraps,SBD
1,Artem Krivolap,T3,87.6,-140,145,155,155,-120,125,-130,125,,180,190,200,200,,480,90,M,Артем Криволап,1995,No,Wraps,SBD
1,Sergiy Skugar,J,88.4,-185,185,-195,185,160,-167.5,-167.5,160,,200,212.5,225,225,,570,90,M,Сергій Скугар,1990,No,Wraps,SBD
2,Igor Mazur,J,88.1,190,202.5,-210,202.5,130,140,142.5,142.5,,200,212.5,-225,212.5,,557.5,90,M,Ігор Мазур,1989,No,Wraps,SBD
1,Viktor Galaguz,O,90,250,265,275,275,200,-207.5,,200,,300,310,-315,310,,785,90,M,Віктор Галагуз,1984,No,Wraps,SBD
2,Yevgen Leushyn,O,90,220,230,250,250,160,170,-180,170,,270,300,310,310,,730,90,M,Євген Леушин,1988,No,Wraps,SBD
3,Oleksiy Matyuschenko,O,90,210,220,235,235,165,172.5,177.5,177.5,,245,-260,-260,245,,657.5,90,M,Олексій Матющенко,1986,No,Wraps,SBD
4,Andriy Zhurakovskyy,O,89.5,210,220,225,225,165,-170,-170,165,,245,260,-270,260,,650,90,M,Андрій Жураковський,1977,No,Wraps,SBD
5,Roman Klymashko,O,88.4,185,-205,-210,185,-155,155,-165,155,,235,250,-260,250,,590,90,M,Роман Климашко,1986,No,Wraps,SBD
1,Maksim Doroshenko,T2,97.3,170,-177.5,-177.5,170,105,-110,-110,105,,190,-200,-200,190,,465,100,M,Максим Дорошенко,1996,No,Wraps,SBD
DQ,Vitaliy Seredenko,T2,99,,,,,,,,,,,,,,,,100,M,Віталій Середенко,1995,No,Wraps,SBD
1,Artur Kan,T3,94.4,150,162.5,-170,162.5,130,137.5,-142.5,137.5,,160,-172.5,-172.5,160,,460,100,M,Артур Кан,1993,No,Wraps,SBD
1,Anton Galaguz,O,98.2,245,255,-267.5,255,170,180,-185,180,,270,-280,-280,270,,705,100,M,Антон Галагуз,1986,No,Wraps,SBD
2,Viktor Nakhan'kov,O,96.9,210,225,240,240,140,155,-165,155,,240,250,260,260,,655,100,M,Віктор Наханьков,1986,No,Wraps,SBD
3,Oleg Bermes,O,95.4,230,-240,240,240,130,140,145,145,,240,250,260,260,,645,100,M,Олег Бермес,1976,No,Wraps,SBD
4,Bogdan Ponochevnyy,O,94.6,180,185,-190,185,-135,140,145,145,,210,220,235,235,,565,100,M,Богдан Поночевний,1988,No,Wraps,SBD
1,Vyacheslav Shudryk,M1,98.6,220,-230,-230,220,175,180,-182.5,180,,240,260,-270,260,,660,100,M,В'ячеслав Шудрик,1971,No,Wraps,SBD
1,Valeriy Lytovchenko,M5,94,160,170,180,180,90,95,100,100,,185,195,-205,195,,475,100,M,Валерій Литовченко,1948,No,Wraps,SBD
1,Yevgen Godyna,O,89.5,-220,-220,220,220,175,-185,-185,175,,280,300,-315,300,,695,90,M,Євген Година,1987,No,Wraps,SBD
1,Vladislav Krivokonev,O,119,240,260,270,270,170,180,-200,180,,320,330,342.5,342.5,,792.5,125,M,Владислав Кривоконєв,1988,No,Wraps,SBD
2,Volodymyr Rozhanskyy,O,114.4,250,265,-280,265,180,195,-202.5,195,,265,300,330,330,,790,125,M,Володимир Рожанський,1980,No,Wraps,SBD
3,Oleksiy Bondar,O,124.3,250,265,270,270,200,205,,205,,250,260,,260,,735,125,M,Олексій Бондарь,1977,No,Wraps,SBD
4,Ruslan Vinnyk,O,110.8,-200,210,215,215,130,135,137.5,137.5,,-245,250,-260,250,,602.5,125,M,Руслан Вінник,1980,No,Wraps,SBD
1,Oleksandr Shendryk,M1,113.7,180,200,210,210,140,145,150,150,,210,225,240,240,,600,125,M,Олександр Шендрик,1972,No,Wraps,SBD
1,Roman Sirmanov,O,128,-250,250,270,270,170,180,-190,180,,255,280,302.5,302.5,,752.5,140,M,Роман Сірманов,1987,No,Wraps,SBD
1,Olga Kozlova,T2,56,100,-110,120,120,60,-67.5,-67.5,60,,100,115,130,130,,310,56,F,Ольга Козлова,1995,Yes,Multi-ply,SBD
DQ,Oleksandr Artyukh,T3,65.5,-180,-180,-180,,,,,,,,,,,,,67.5,M,Олександр Артюх,1993,Yes,Multi-ply,SBD
1,Bogdan Vorobey,O,75,-250,260,-285,260,140,152.5,-170,152.5,,240,255,-265,255,,667.5,75,M,Богдан Воробей,1983,Yes,Multi-ply,SBD
DQ,Artemiy Papin,T3,78.4,-230,-230,-240,,,,,,,,,,,,,82.5,M,Артемій Папін,1994,Yes,Multi-ply,SBD
1,Andriy Dyatlov,O,80.9,270,292.5,-302.5,292.5,185,195,-205,195,,225,240,260,260,,747.5,82.5,M,Андрій Дятлов,1985,Yes,Multi-ply,SBD
2,Volodymyr Lapunin,O,80.8,240,260,270,270,155,165,-175,165,,220,-230,230,230,,665,82.5,M,Володимир Лапунін,1975,Yes,Multi-ply,SBD
3,Igor Zhuk #1,O,82.3,245,255,-265,255,130,-165,-165,130,,180,200,210,210,,595,82.5,M,Игорь Жук,1988,Yes,Multi-ply,SBD
DQ,Sergiy Baranenko,O,79.5,240,257.5,272.5,272.5,-190,-190,-190,,,,,,,,,82.5,M,Сергій Бараненко,1983,Yes,Multi-ply,SBD
1,Gennadiy Popov,T3,85.4,200,210,225,225,-150,150,-160,150,,170,190,-200,190,,565,90,M,Геннадій Попов,1994,Yes,Multi-ply,SBD
DQ,Oleksandr Kuzmenko,J,90,-215,-215,215,215,-152.5,-152.5,-152.5,,,,,,,,,90,M,Олександр Кузьменко,1992,Yes,Multi-ply,SBD
1,Dmytro Derevyanko,O,89.3,335,-350,351,351,195,201,-205,201,,280,300,-307.5,300,,852,90,M,Дмитро Дерев'янко,1984,Yes,Multi-ply,SBD
1,Volodymyr Andreev,O,96.2,-180,-185,185,185,110,120,-135,120,,-180,190,-220,190,,495,100,M,Володимир Андреєв,1973,Yes,Multi-ply,SBD
1,Andrey Voznyuk,J,74.8,220,240,-250,240,140,155,-162.5,155,,200,220,232.5,232.5,,627.5,75,M,Андрій Вознюк,1993,No,Multi-ply,SBD
1,Andrey Voznyuk,O,74.8,220,240,-250,240,140,155,-162.5,155,,200,220,232.5,232.5,,627.5,75,M,Андрій Вознюк,1993,No,Multi-ply,SBD
1,Artur Borodavko,J,78.5,200,215,230,230,-170,170,-180,170,,185,200,-225,200,,600,82.5,M,Артур Бородавко,1992,No,Multi-ply,SBD
1,Igor Povazhnyuk,O,76.5,-300,300,310,310,192.5,200,-205,200,,265,285,-295,285,,795,82.5,M,Ігор Поважнюк,1974,No,Multi-ply,SBD
1,Kostyantin Chernov,O,85.4,-280,280,320,320,220,240,245,245,,-240,240,-260,240,,805,90,M,Костянтин Чернов,1984,No,Multi-ply,SBD
2,Sergiy Sokolovskyy,O,86.8,-270,270,-285,270,145,-155,155,155,,280,305,315,315,,740,90,M,Сергій Соколовський,1976,No,Multi-ply,SBD
DQ,Kyrylo Ostapishin,O,87.8,-325,-325,-325,,,,,,,,,,,,,90,M,Кирило Остапішин,1985,No,Multi-ply,SBD
1,Sergiy Semenchenko,J,92.6,-265,265,-275,265,-170,-170,170,170,,240,250,-260,250,,685,100,M,Сергій Семенченко,1990,No,Multi-ply,SBD
DQ,Dmytro Kharchenko,J,91.4,370,-382.5,-382.5,370,-240,-240,-240,,,,,,,,,100,M,Дмитро Харченко,1991,No,Multi-ply,SBD
DQ,Mikhaylo Zhelyazkov,O,98,380,-390,-390,380,-250,-250,-250,,,,,,,,,100,M,Михайло Желязков,1980,No,Multi-ply,SBD
1,Sergiy Lyakhevych,T3,110,-320,-320,340,340,190,210,220,220,,300,320,340,340,,900,110,M,Сергій Ляхевич,1993,No,Multi-ply,SBD
1,Oleksandr Chalyy,J,104.8,300,320,330,330,-220,220,230,230,,280,300,315,315,,875,110,M,Олександр Чалий,1992,No,Multi-ply,SBD
1,Ivan Morgun,J,113.3,360,380,-390,380,260,-270,270,270,,290,320,-335,320,,970,125,M,Іван Моргун,1990,No,Multi-ply,SBD
1,Vladyslav Shmyglo,T3,158,230,240,250,250,180,,,180,,-240,240,,240,,670,140+,M,Владислав Шмигло,1994,No,Multi-ply,SBD
1,Elizaveta Chernikova,T1,43,,,,,35,-37.5,40,40,,,,,,,40,44,F,Єлизавета Чернікова,1999,Yes,Raw,B
1,Irina Zadikiyan,O,42.5,,,,,25,30,32.5,32.5,,,,,,,32.5,44,F,Ірина Задікіян,1983,Yes,Raw,B
2,Yuliya Shirochenkova,O,42,,,,,27.5,-30,-30,27.5,,,,,,,27.5,44,F,Юлія Широченкова,1981,Yes,Raw,B
1,Oleksandra Yakimtsova,T3,47.7,,,,,40,45,-50,45,,,,,,,45,48,F,Олександра Якимцова,1993,Yes,Raw,B
1,Anastasiya Vasylchenko,J,45,,,,,45,50,-55,50,,,,,,,50,48,F,Анастасія Васильченко,1992,Yes,Raw,B
2,Natalya Sporysh,J,47.6,,,,,45,50,-52.5,50,,,,,,,50,48,F,Наталя Спориш,1992,Yes,Raw,B
1,Anastasiya Vasylchenko,O,45,,,,,45,50,-55,50,,,,,,,50,48,F,Анастасія Васильченко,1992,Yes,Raw,B
1,Anastasiya Ukhanenko,T1,50,,,,,30,32.5,35,35,,,,,,,35,52,F,Анастасія Уханенко,1998,Yes,Raw,B
1,Valeriya Pozdnyakova,J,50.3,,,,,52.5,55,57.5,57.5,,,,,,,57.5,52,F,Валерия Позднякова,1991,Yes,Raw,B
1,Zhanna Schurovska,O,51,,,,,-40,45,-50,45,,,,,,,45,52,F,Жанна Щуровська,1985,Yes,Raw,B
2,Svitlana Belikova,O,50.2,,,,,-40,40,-47.5,40,,,,,,,40,52,F,Світлана Бєлікова,1974,Yes,Raw,B
1,Irina Demydenko,M2,52,,,,,42.5,45,47.5,47.5,,,,,,,47.5,52,F,Ірина Демиденко,1964,Yes,Raw,B
1,Olga Kyrych,T1,53,,,,,35,-40,-42.5,35,,,,,,,35,56,F,Ольга Кирич,1997,Yes,Raw,B
1,Viktoriya Sokolova,J,55.1,,,,,67.5,72.5,77.5,77.5,,,,,,,77.5,56,F,Вікторія Соколова,1989,Yes,Raw,B
2,Olga Synytska,J,54,,,,,45,-47.5,47.5,47.5,,,,,,,47.5,56,F,Ольга Синицька,1989,Yes,Raw,B
3,Anna Ivonchak,J,54,,,,,35,37.5,-40,37.5,,,,,,,37.5,56,F,Анна Івончак,1992,Yes,Raw,B
1,Anna Konoval,O,55,,,,,70,80,-82.5,80,,,,,,,80,56,F,Анна Коновал,1984,Yes,Raw,B
2,Viktoriya Sokolova,O,55.1,,,,,67.5,72.5,77.5,77.5,,,,,,,77.5,56,F,Вікторія Соколова,1989,Yes,Raw,B
3,Yuliya Golovkina,O,55,,,,,62.5,65,67.5,67.5,,,,,,,67.5,56,F,Юлія Головкіна,1977,Yes,Raw,B
1,Olga Vershok,J,59,,,,,55,57.5,-60,57.5,,,,,,,57.5,60,F,Ольга Вершок,1989,Yes,Raw,B
2,Tetyana Barduk,J,59.7,,,,,50,55,-60,55,,,,,,,55,60,F,Тетяна Бардук,1992,Yes,Raw,B
1,Natalya Mavdryk,O,59.5,,,,,60,-65,-65,60,,,,,,,60,60,F,Наталя Мавдрик,1984,Yes,Raw,B
1,Olena Yarova,M1,60,,,,,-62.5,62.5,,62.5,,,,,,,62.5,60,F,Олена Ярова,1969,Yes,Raw,B
1,Anastasiya Yuzhakova,O,66.8,,,,,65,-75,75,75,,,,,,,75,67.5,F,Анастасія Южакова,1988,Yes,Raw,B
2,Galyna Rogatska,O,67.5,,,,,75,-80,-80,75,,,,,,,75,67.5,F,Галина Рогацька,1986,Yes,Raw,B
3,Yana Sologub,O,66,,,,,35,40,-45,40,,,,,,,40,67.5,F,Яна Сологуб,1979,Yes,Raw,B
1,Olena Timofeyeva,M1,61,,,,,55,60,-65,60,,,,,,,60,67.5,F,Олена Тимофеєва,1968,Yes,Raw,B
1,Antonina Vasilyuk,O,80,,,,,60,70,-72.5,70,,,,,,,70,82.5,F,Антоніна Василюк,1988,Yes,Raw,B
1,Dmytro Usachov,T1,50.3,,,,,60,65,70,70,,,,,,,70,52,M,Дмитро Усачов,1998,Yes,Raw,B
2,Yaroslav Prokopenko,T1,49.8,,,,,52.5,57.5,60,60,,,,,,,60,52,M,Ярослав Прокопенко,1998,Yes,Raw,B
3,Karen Ovakimyan,T1,50.4,,,,,50,55,-57.5,55,,,,,,,55,52,M,Карен Овакімян,1998,Yes,Raw,B
1,Illya Marchenko,T1,52.6,,,,,55,60,-65,60,,,,,,,60,56,M,Ілля Марченко,1998,Yes,Raw,B
2,Maksim Bezdolniy,T1,55.7,,,,,-50,60,-70,60,,,,,,,60,56,M,Максим Бездольний,1998,Yes,Raw,B
3,Arsen Petrusyak,T1,54.3,,,,,35,40,45,45,,,,,,,45,56,M,Арсен Петрусяк,2000,Yes,Raw,B
1,Oleg Kutsiy,T2,52.9,,,,,60,65,-70,65,,,,,,,65,56,M,Олег Куций,1995,Yes,Raw,B
1,Denys Sokorev,T3,54.9,,,,,90,-100,-100,90,,,,,,,90,56,M,Денис Сокорєв,1993,Yes,Raw,B
1,Makar Kalko,T1,60,,,,,65,70,75,75,,,,,,,75,60,M,Макар Калько,1999,Yes,Raw,B
1,Yevgen Tymko,T2,59.6,,,,,105,112.5,115,115,,,,,,,115,60,M,Євген Тимко,1996,Yes,Raw,B
1,Andriy Bodnichuk,T3,59.1,,,,,70,77.5,80,80,,,,,,,80,60,M,Андрій Боднічук,1993,Yes,Raw,B
1,Roman Borodynchyk,J,59,,,,,100,115,-120,115,,,,,,,115,60,M,Роман Бородинчик,1992,Yes,Raw,B
2,Yuriy Yevstratov,J,60,,,,,95,105,-112.5,105,,,,,,,105,60,M,Юрій Євстратов,1991,Yes,Raw,B
3,Ivan Rud,J,59.5,,,,,-97.5,97.5,-112.5,97.5,,,,,,,97.5,60,M,Іван Рудь,1991,Yes,Raw,B
1,Rostyslav Borovskyy,O,58.4,,,,,105,110,115,115,,,,,,,115,60,M,Ростислав Боровський,1986,Yes,Raw,B
1,Arthur Sozinov,T1,67.5,,,,,82.5,87.5,90,90,,,,,,,90,67.5,M,Артур Созінов,1998,Yes,Raw,B
2,Denys Syvokha,T1,67.5,,,,,80,85,-90,85,,,,,,,85,67.5,M,Денис Сивоха,1997,Yes,Raw,B
3,Bogdan Yeryomin,T1,65.7,,,,,80,-87.5,-87.5,80,,,,,,,80,67.5,M,Богдан Єрьомін,1998,Yes,Raw,B
1,Viktor Kalynovskyy,T2,65,,,,,130,140,-142.5,140,,,,,,,140,67.5,M,Віктор Калиновський,1995,Yes,Raw,B
2,Volodymyr Kolesnyk,T2,65.7,,,,,120,125,-132.5,125,,,,,,,125,67.5,M,Володимир Колесник,1997,Yes,Raw,B
1,Vyacheslav Kozis,T3,66.1,,,,,130,140,-142.5,140,,,,,,,140,67.5,M,В'ячеслав Козіс,1993,Yes,Raw,B
2,Nazar Zagrichuk,T3,64.8,,,,,90,97.5,-100,97.5,,,,,,,97.5,67.5,M,Назар Загричук,1994,Yes,Raw,B
1,Artem Bezerkhiy,J,65.5,,,,,115,125,135,135,,,,,,,135,67.5,M,Артем Безерхий,1989,Yes,Raw,B
2,Oleksandr Petrov,J,65.8,,,,,127.5,132.5,135,135,,,,,,,135,67.5,M,Олександр Петров,1992,Yes,Raw,B
3,Vladyslav Prodan,J,66.6,,,,,115,125,135,135,,,,,,,135,67.5,M,Владислав Продан,1990,Yes,Raw,B
4,Vladyslav Kupriyanenko,J,65.2,,,,,110,115,-125,115,,,,,,,115,67.5,M,Владислав Купріяненко,1991,Yes,Raw,B
5,Oleksandr Simonenko,J,67.1,,,,,105,-110,-110,105,,,,,,,105,67.5,M,Олександр Симоненко,1992,Yes,Raw,B
1,Valeriy Rud',O,66.7,,,,,-125,125,-137.5,125,,,,,,,125,67.5,M,Валерій Рудь,1987,Yes,Raw,B
2,Evgen Sadika,O,65.2,,,,,-120,120,-125,120,,,,,,,120,67.5,M,Євген Садика,1986,Yes,Raw,B
1,Mykola Belov,T1,70.1,,,,,115,-120,-120,115,,,,,,,115,75,M,Микола Бєлов,1997,Yes,Raw,B
2,Glib Tarasyk,T1,68.9,,,,,50,55,60,60,,,,,,,60,75,M,Гліб Тарасик,1997,Yes,Raw,B
1,Oleg Oliynyk,T2,73.3,,,,,105,115,-125,115,,,,,,,115,75,M,Олег Олійник,1995,Yes,Raw,B
1,Stanislav Tereschenko,T3,73.4,,,,,125,-137.5,-137.5,125,,,,,,,125,75,M,Станіслав Терещенко,1993,Yes,Raw,B
2,Volodymyr Borov,T3,69.9,,,,,110,-125,-125,110,,,,,,,110,75,M,Володимир Боров,1994,Yes,Raw,B
1,Oleksandr Kovalenko,J,75,,,,,165,170,172.5,172.5,,,,,,,172.5,75,M,Олександр Коваленко,1991,Yes,Raw,B
2,Andriy Maslyak,J,73.9,,,,,155,160,-165,160,,,,,,,160,75,M,Андрій Масляк,1990,Yes,Raw,B
3,Yaroslav Raskopov,J,72.9,,,,,130,-137.5,-137.5,130,,,,,,,130,75,M,Ярослав Раскопов,1990,Yes,Raw,B
3,Sergiy Lyashko,J,72.9,,,,,130,-137.5,-137.5,130,,,,,,,130,75,M,Сергій Ляшко,1990,Yes,Raw,B
5,Dmytro Nikolaenko,J,72.5,,,,,105,115,120,120,,,,,,,120,75,M,Дмитро Ніколаєнко,1989,Yes,Raw,B
1,Volodymyr Tkachuk,O,74,,,,,150,160,165,165,,,,,,,165,75,M,Володимир Ткачук,1988,Yes,Raw,B
2,Vyacheslav Akhtemov,O,71.2,,,,,145,150,-155,150,,,,,,,150,75,M,В'ячеслав Ахтемов,1978,Yes,Raw,B
3,Sergiy Pugachev,O,73.5,,,,,140,150,-155,150,,,,,,,150,75,M,Сергій Пугачов,1984,Yes,Raw,B
4,Igor Konovalov,O,73.6,,,,,127.5,135,145,145,,,,,,,145,75,M,Ігор Коновалов,1986,Yes,Raw,B
5,Yaroslav Telker,O,74.9,,,,,137.5,142.5,-145,142.5,,,,,,,142.5,75,M,Ярослав Телькер,1988,Yes,Raw,B
6,Kostyantyn Chunikhovskyy,O,73.7,,,,,140,-147.5,-147.5,140,,,,,,,140,75,M,Костянтин Чуніховський,1987,Yes,Raw,B
7,Sergiy Khachaturyan,O,71.9,,,,,-130,130,137.5,137.5,,,,,,,137.5,75,M,Сергій Хачатурян,1986,Yes,Raw,B
8,Oleksiy Martynets,O,73.4,,,,,125,137.5,-140,137.5,,,,,,,137.5,75,M,Олексій Мартинець,1980,Yes,Raw,B
9,Eduard Mischenko,O,73.5,,,,,-137.5,137.5,-142.5,137.5,,,,,,,137.5,75,M,Едуард Міщенко,1983,Yes,Raw,B
10,Denis Avramenko,O,75,,,,,122.5,-127.5,-127.5,122.5,,,,,,,122.5,75,M,Денис Авраменко,1981,Yes,Raw,B
11,Viktor Filonenko,O,74.2,,,,,-85,85,-90,85,,,,,,,85,75,M,Виктор Филоненко,1980,Yes,Raw,B
DD,Artur Gurevich,M1,74.1,,,,,,,,,,,,,,,,75,M,Артур Гуревич,1970,Yes,Raw,B
1,Mykola Popov,M4,74.5,,,,,-90,90,-95,90,,,,,,,90,75,M,Микола Попов,1954,Yes,Raw,B
DQ,Arsen Kaseyev,M4,73.9,,,,,,,,,,,,,,,,75,M,Арсен Касєєв,1955,Yes,Raw,B
1,Andriy Trusov,T1,80.2,,,,,90,95,-100,95,,,,,,,95,82.5,M,Андрій Трусов,1997,Yes,Raw,B
2,Kyrylo Sharoyko,T1,77.3,,,,,65,70,75,75,,,,,,,75,82.5,M,Кирило Шаройко,1998,Yes,Raw,B
1,Leonid Govaleshko,T2,76,,,,,80,90,-95,90,,,,,,,90,82.5,M,Леонід Говалешко,1996,Yes,Raw,B
1,Oleksandr Kyrylenko,T3,78.7,,,,,140,150,-155,150,,,,,,,150,82.5,M,Олександр Кириленко,1994,Yes,Raw,B
2,Ivan Belokon',T3,77.4,,,,,127.5,-135,135,135,,,,,,,135,82.5,M,Іван Белоконь,1994,Yes,Raw,B
3,Denis Gaymurenko,T3,80.3,,,,,105,-110,-110,105,,,,,,,105,82.5,M,Денис Гаймуренко,1994,Yes,Raw,B
1,Valentin Dzhumaylo,J,82,,,,,160,167.5,172.5,172.5,,,,,,,172.5,82.5,M,Валентин Джумайло,1993,Yes,Raw,B
2,Yaroslav Golynskyy,J,81,,,,,-155,155,165,165,,,,,,,165,82.5,M,Ярослав Голинський,1991,Yes,Raw,B
3,Arman Badalyan,J,81,,,,,150,162.5,-167.5,162.5,,,,,,,162.5,82.5,M,Арман Бадалян,1991,Yes,Raw,B
4,Dmytro Koval',J,81.5,,,,,120,130,-142.5,130,,,,,,,130,82.5,M,Дмитро Коваль,1991,Yes,Raw,B
DD,Vladislav Potseluyko,J,80.3,,,,,115,120,-125,120,,,,,,,,82.5,M,Владислав Поцелуйко,1991,Yes,Raw,B
1,Valentin Dzhumaylo,O,82,,,,,160,167.5,172.5,172.5,,,,,,,172.5,82.5,M,Валентин Джумайло,1993,Yes,Raw,B
2,Yevgen Chernenko,O,82.5,,,,,160,165,172.5,172.5,,,,,,,172.5,82.5,M,Євген Черненко,1974,Yes,Raw,B
3,Roman Vershinin #1,O,80.9,,,,,-140,150,-152.5,150,,,,,,,150,82.5,M,Роман Вершинін,1979,Yes,Raw,B
4,Oleksiy Telker,O,82.1,,,,,150,-155,-155,150,,,,,,,150,82.5,M,Олексій Телькер,1980,Yes,Raw,B
5,Dmytro Fedenko,O,81.2,,,,,145,150,-155,150,,,,,,,150,82.5,M,Дмитро Феденко,1986,Yes,Raw,B
6,Pavlo Dvertsevoy,O,80.3,,,,,135,-142.5,145,145,,,,,,,145,82.5,M,Павло Дверцевой,1986,Yes,Raw,B
7,Mykhaylo Kharitonov,O,81.1,,,,,130,135,140,140,,,,,,,140,82.5,M,Михайло Харитонов,1982,Yes,Raw,B
8,Dmytro Chushenkov,O,82.1,,,,,-125,135,-150,135,,,,,,,135,82.5,M,Дмитро Чушенков,1983,Yes,Raw,B
DQ,Sergiy Stepanenko,O,78.6,,,,,-140,-140,-140,,,,,,,,,82.5,M,Сергій Степаненко,1985,Yes,Raw,B
1,Oleksiy Slyusar,T2,84,,,,,115,120,-125,120,,,,,,,120,90,M,Олексій Слюсар,1995,Yes,Raw,B
2,Bogdan Dmitrenko,T2,87.3,,,,,95,102.5,110,110,,,,,,,110,90,M,Богдан Дмитренко,1996,Yes,Raw,B
1,Artem Dmitruk,T3,90,,,,,150,-160.5,160.5,160.5,-165,,,,,,160.5,90,M,Артем Дмитрук,1993,Yes,Raw,B
1,Ruslan Motuzkin,J,89,,,,,175,185,190,190,,,,,,,190,90,M,Руслан Мотузкін,1993,Yes,Raw,B
2,Georgiy Sasania,J,88.3,,,,,175,182.5,187.5,187.5,,,,,,,187.5,90,M,Георгий Сасаниа,1993,Yes,Raw,B
3,Roman Yurkov,J,88.5,,,,,155,162.5,-167.5,162.5,,,,,,,162.5,90,M,Роман Юрков,1989,Yes,Raw,B
4,Yevgen Agapov,J,88.3,,,,,145,155,-160,155,,,,,,,155,90,M,Євген Агапов,1991,Yes,Raw,B
5,Sergiy Berezhnoy,J,89.7,,,,,135,145,-150,145,,,,,,,145,90,M,Сергій Бережной,1992,Yes,Raw,B
DQ,Vitaliy Bogdan,J,86.1,,,,,-160,-160,-160,,,,,,,,,90,M,Віталій Богдан,1990,Yes,Raw,B
1,Oleg Slyusar,O,84.1,,,,,180,191,-200,191,,,,,,,191,90,M,Олег Слюсар,1972,Yes,Raw,B
2,Oleksandr Oleynik,O,90,,,,,-170,170,-182.5,170,,,,,,,170,90,M,Олександр Олейник,1986,Yes,Raw,B
3,Roman Yurkov,O,88.5,,,,,155,162.5,-167.5,162.5,,,,,,,162.5,90,M,Роман Юрков,1989,Yes,Raw,B
4,Vyacheslav Bordiyanu,O,85,,,,,150,-160,-160,150,,,,,,,150,90,M,Вячеслав Бордіяну,1983,Yes,Raw,B
5,Igor Ilchenko,O,88.5,,,,,-150,150,-157.5,150,,,,,,,150,90,M,Ігор Ільченко,1981,Yes,Raw,B
6,Denis Mazur,O,90,,,,,140,145,-150,145,,,,,,,145,90,M,Денис Мазур,1985,Yes,Raw,B
7,Sergiy Chepets,O,89.7,,,,,140,-147.5,-147.5,140,,,,,,,140,90,M,Сергій Чепець,1976,Yes,Raw,B
8,Yuriy Sobolev #2,O,87.4,,,,,-135,-135,135,135,,,,,,,135,90,M,Юрій Соболєв,1988,Yes,Raw,B
1,Oleg Slyusar,M1,84.1,,,,,180,191,-200,191,,,,,,,191,90,M,Олег Слюсар,1972,Yes,Raw,B
2,Oleksiy Alekseev,M1,87.4,,,,,140,145,147.5,147.5,,,,,,,147.5,90,M,Олексій Алексеєв,1972,Yes,Raw,B
1,Elman Gadzhiev,M3,89.2,,,,,160,165,,165,,,,,,,165,90,M,Ельман Гаджієв,1959,Yes,Raw,B
1,Mykola Shkatula,M4,89.4,,,,,-130,135,140,140,,,,,,,140,90,M,Микола Шкатула,1957,Yes,Raw,B
1,Dmytro Vovk,T2,99.1,,,,,175,-190,-190,175,,,,,,,175,100,M,Дмитро Вовк,1996,Yes,Raw,B
2,Oleksiy Palekhay,T2,93.4,,,,,110,-115,115,115,,,,,,,115,100,M,Олексій Палехай,1995,Yes,Raw,B
1,Ivan Kucherenko,T3,98.5,,,,,150,160,-167.5,160,,,,,,,160,100,M,Іван Кучеренко,1993,Yes,Raw,B
2,Vyacheslav Polischuk,T3,96.1,,,,,105,115,130,130,,,,,,,130,100,M,В'ячеслав Поліщук,1994,Yes,Raw,B
3,Vladislav Litvin,T3,97,,,,,85,-95,-95,85,,,,,,,85,100,M,Владислав Литвин,1994,Yes,Raw,B
1,Dmytro Lytvynenko,J,99.2,,,,,180,195,197.5,197.5,,,,,,,197.5,100,M,Дмитро Литвиненко,1989,Yes,Raw,B
1,Dmytro Lytvynenko,O,99.2,,,,,180,195,197.5,197.5,,,,,,,197.5,100,M,Дмитро Литвиненко,1989,Yes,Raw,B
2,Oleksandr Reva,O,97.1,,,,,180,192.5,-197.5,192.5,,,,,,,192.5,100,M,Олександр Рева,1982,Yes,Raw,B
3,Kostyantyn Kravets,O,98.5,,,,,180,192.5,-200,192.5,,,,,,,192.5,100,M,Костянтин Кравець,1989,Yes,Raw,B
4,Sergiy Kondrashenko,O,95.2,,,,,175,185,-190,185,,,,,,,185,100,M,Сергій Кондрашенко,1981,Yes,Raw,B
5,Dmytro Vovk,O,99.1,,,,,175,-190,-190,175,,,,,,,175,100,M,Дмитро Вовк,1996,Yes,Raw,B
6,Igor Zelenskyy,O,96.6,,,,,152.5,-155,,152.5,,,,,,,152.5,100,M,Ігор Зеленський,1987,Yes,Raw,B
1,Volodymyr Zolotashko,M1,100,,,,,170,180,-190,180,,,,,,,180,100,M,Володимир Золоташко,1971,Yes,Raw,B
2,Oleksandr Sorochynskyy,M1,98,,,,,150,160,167.5,167.5,,,,,,,167.5,100,M,Олександр Сорочинський,1971,Yes,Raw,B
1,Mykola Tarnavskyy,M3,95.5,,,,,160,167.5,-175,167.5,,,,,,,167.5,100,M,Микола Тарнавський,1962,Yes,Raw,B
DD,Ivan Slepov,T3,109.2,,,,,,,,,,,,,,,,110,M,Іван Слєпов,1994,Yes,Raw,B
1,Kyrylo Sekretenko,J,107.8,,,,,160,-175,175,175,,,,,,,175,110,M,Кирило Секретенко,1992,Yes,Raw,B
2,Igor Karaush,J,109.3,,,,,-165,170,-177.5,170,,,,,,,170,110,M,Ігор Карауш,1990,Yes,Raw,B
3,Oleksandr Varenya,J,104,,,,,150,-155,-155,150,,,,,,,150,110,M,Олександр Вареня,1990,Yes,Raw,B
1,Oleksandr Butenko,O,107.6,,,,,185,200,,200,,,,,,,200,110,M,Олександр Бутенко,1987,Yes,Raw,B
2,Vitaliy Yuschenko,O,106,,,,,-180,180,185,185,,,,,,,185,110,M,Віталій Ющенко,1976,Yes,Raw,B
3,Gennadiy Larin,O,105.1,,,,,165,175,-180,175,,,,,,,175,110,M,Геннадій Ларін,1973,Yes,Raw,B
4,Igor Karaush,O,109.3,,,,,-165,170,-177.5,170,,,,,,,170,110,M,Ігор Карауш,1990,Yes,Raw,B
5,Sergiy Shumskyy,O,105.4,,,,,150,160,165,165,,,,,,,165,110,M,Сергій Шумський,1985,Yes,Raw,B
6,Andriy Chekachkov,O,110,,,,,145,155,,155,,,,,,,155,110,M,Андрій Чекачков,1980,Yes,Raw,B
1,Sergey Protsenko,M1,109.3,,,,,160,-175,-175,160,,,,,,,160,110,M,Сергей Проценко,1972,Yes,Raw,B
2,Dmitro Grigorev #1,M1,107.6,,,,,150,,,150,,,,,,,150,110,M,Дмитро Григор'єв,1971,Yes,Raw,B
1,Oleksandr Stryga,O,119.4,,,,,205,215,-220,215,,,,,,,215,125,M,Олександр Стрига,1967,Yes,Raw,B
2,Valeriy Kondratenko,O,119,,,,,190,200,-205,200,,,,,,,200,125,M,Валерій Кондратенко,1970,Yes,Raw,B
3,Dmytro Voronin,O,117.1,,,,,160,170,182.5,182.5,,,,,,,182.5,125,M,Дмитро Воронін,1980,Yes,Raw,B
4,Pavlo Kutsyy,O,117.6,,,,,182.5,-190,-195,182.5,,,,,,,182.5,125,M,Павло Куций,1974,Yes,Raw,B
5,Andriy Gorobets,O,120,,,,,175,182.5,,182.5,,,,,,,182.5,125,M,Андрій Горобець,1982,Yes,Raw,B
6,Denys Cheremyn,O,119.2,,,,,150,-160,-165,150,,,,,,,150,125,M,Денис Черемин,1985,Yes,Raw,B
1,Valeriy Kondratenko,M1,119,,,,,190,200,-205,200,,,,,,,200,125,M,Валерій Кондратенко,1970,Yes,Raw,B
2,Oleksandr Khut'ko,M1,122,,,,,170,180,182.5,182.5,,,,,,,182.5,125,M,Олександр Хутько,1968,Yes,Raw,B
1,Oleksandr Stryga,M2,119.4,,,,,205,215,-220,215,,,,,,,215,125,M,Олександр Стрига,1967,Yes,Raw,B
2,Vladislav Marchenko,M2,117.3,,,,,145,150,155,155,,,,,,,155,125,M,Владислав Марченко,1967,Yes,Raw,B
1,Yuriy Ryaboshapka,M5,114.2,,,,,120,-125,-125,120,,,,,,,120,125,M,Юрій Рябошапка,1950,Yes,Raw,B
1,Igor Pober,O,132,,,,,220,225,-227.5,225,,,,,,,225,140,M,Ігор Побер,1968,Yes,Raw,B
2,Oleksandr Shvab,O,128,,,,,140,,,140,,,,,,,140,140,M,Олександр Шваб,1976,Yes,Raw,B
1,Igor Pober,M1,132,,,,,220,225,-227.5,225,,,,,,,225,140,M,Ігор Побер,1968,Yes,Raw,B
1,Oleksandr Zhariy,M1,59,,,,,115,120,-125,120,,,,,,,120,60,M,Олександр Жарий,1972,No,Raw,B
1,Denis Makarchuk,T2,65,,,,,90,-100,100,100,,,,,,,100,67.5,M,Денис Макарчук,1996,No,Raw,B
1,Oleksandr Kovalenko,O,64,,,,,140,145,-152.5,145,,,,,,,145,67.5,M,Олександр Коваленко,1983,No,Raw,B
1,Stanislav Khaitov,J,73,,,,,150,160,-170,160,,,,,,,160,75,M,Станіслав Хаїтов,1990,No,Raw,B
2,Vitaliy Zhabinskiy,J,68.7,,,,,140,150,155,155,,,,,,,155,75,M,Віталій Жабінський,1992,No,Raw,B
3,Arthur Mylin,J,72,,,,,-120,120,122.5,122.5,,,,,,,122.5,75,M,Артур Милін,1989,No,Raw,B
4,Oleksandr Kovtun,J,70.5,,,,,110,120,-122.5,120,,,,,,,120,75,M,Олександр Ковтун,1991,No,Raw,B
1,Andriy Kudryavtsev,O,72.5,,,,,160,165,-170,165,,,,,,,165,75,M,Андрій Кудрявцев,1974,No,Raw,B
2,Anton Darda,O,72.2,,,,,127.5,-137.5,-137.5,127.5,,,,,,,127.5,75,M,Антон Дарда,1988,No,Raw,B
1,Peter Kravtsov,M6,75,,,,,90,,,90,,,,,,,90,75,M,,1946,No,Raw,B
1,Igor Samoylenko,J,80,,,,,135,140,142.5,142.5,,,,,,,142.5,82.5,M,Ігор Самойленко,1989,No,Raw,B
DD,Ivan Klym,J,76.7,,,,,-120,135,-145,135,,,,,,,,82.5,M,Іван Клим,1993,No,Raw,B
1,Andriy Buzovetskyy,O,77.4,,,,,172.5,177.5,180,180,,,,,,,180,82.5,M,Андрій Бузовецький,1988,No,Raw,B
2,Oleksiy Kudashov,O,78.3,,,,,130,-137.5,-137.5,130,,,,,,,130,82.5,M,Олексій Кудашов,1979,No,Raw,B
1,Vladyslav Polyvko,T1,88.6,,,,,90,-95,-95,90,,,,,,,90,90,M,Владислав Поливко,1998,No,Raw,B
1,Sergiy Skugar,J,88.4,,,,,155,162.5,165,165,,,,,,,165,90,M,Сергій Скугар,1990,No,Raw,B
1,Dmytro Perederiy,O,89.7,,,,,185,192.5,195,195,,,,,,,195,90,M,Дмитро Передерій,1980,No,Raw,B
2,Yuriy Yaroslavskyy,O,90,,,,,175,185,192.5,192.5,,,,,,,192.5,90,M,Юрій Ярославський,1962,No,Raw,B
3,Yevgen Nadich,O,88.5,,,,,170,-180,-180,170,,,,,,,170,90,M,Євген Надіч,1988,No,Raw,B
4,Oleg Vychizhanin,O,85.6,,,,,140,-150,-150,140,,,,,,,140,90,M,Олег Вичіжанін,1988,No,Raw,B
DQ,Vsevolod Petrov,O,86.3,,,,,-150,-150,-150,,,,,,,,,90,M,Всеволод Петров,1983,No,Raw,B
1,Andriy Vasylenko,M1,89.8,,,,,145,-150,155,155,,,,,,,155,90,M,Андрій Василенко,1968,No,Raw,B
1,Yuriy Yaroslavskyy,M3,90,,,,,175,185,192.5,192.5,,,,,,,192.5,90,M,Юрій Ярославський,1962,No,Raw,B
1,Ruslan Melnichuk,T2,94,,,,,125,135,145,145,,,,,,,145,100,M,Руслан Мельничук,1995,No,Raw,B
1,Oleksandr Novik,J,92.6,,,,,170,180,-185,180,,,,,,,180,100,M,Олександр Новік,1992,No,Raw,B
DQ,Oleksandr Tarasov,J,99.2,,,,,,,,,,,,,,,,100,M,Олександр Тарасов,1991,No,Raw,B
1,Aleksandr Scherbakov,O,94.2,,,,,210,220,-230,220,,,,,,,220,100,M,,1966,No,Raw,B
2,Oleksandr Karnaukh,O,97.3,,,,,180,-190,-190,180,,,,,,,180,100,M,Олександр Карнаух,1980,No,Raw,B
3,Sergiy Makarenko,O,97.2,,,,,160,172.5,-180,172.5,,,,,,,172.5,100,M,Сергій Макаренко,1981,No,Raw,B
4,Pavlo Sheptytskyy,O,92.4,,,,,155,165,-172.5,165,,,,,,,165,100,M,Павло Шептицький,1988,No,Raw,B
DQ,Sergiy Polutin,O,99.1,,,,,,,,,,,,,,,,100,M,Сергій Полутін,1975,No,Raw,B
DQ,Maksim Kaydan,O,97.3,,,,,,,,,,,,,,,,100,M,Максим Кайдан,1985,No,Raw,B
1,Aleksandr Scherbakov,M2,94.2,,,,,210,220,-230,220,,,,,,,220,100,M,,1966,No,Raw,B
1,Sergiy Pysarenko,T2,106.1,,,,,140,-150,-150,140,,,,,,,140,110,M,Сергій Писаренко,1996,No,Raw,B
1,Sergiy Korolenko,O,105.2,,,,,215,-230,-230,215,,,,,,,215,110,M,Сергій Короленко,1977,No,Raw,B
2,Maksim Zabula,O,109.2,,,,,195,202.5,205,205,,,,,,,205,110,M,Максим Забула,1974,No,Raw,B
3,Lyubomir Dichko,O,109.9,,,,,180,202.5,205,205,,,,,,,205,110,M,Любомир Дичко,1986,No,Raw,B
4,Maksim Gruzdyuk,O,107,,,,,185,195,202.5,202.5,,,,,,,202.5,110,M,Максим Груздюк,1986,No,Raw,B
1,Andriy Gimbarov,M2,105.1,,,,,140,150,160,160,,,,,,,160,110,M,Андрій Гімбаров,1966,No,Raw,B
1,Viktor Kurochkin,M4,106,,,,,140,,,140,,,,,,,140,110,M,Віктор Курочкін,1955,No,Raw,B
1,Viktor Mima,J,125,,,,,190,205,,205,,,,,,,205,125,M,Віктор Міма,1991,No,Raw,B
1,Maksim Pogas,O,111,,,,,220,-227.5,-227.5,220,,,,,,,220,125,M,Максим Погас,1985,No,Raw,B
2,Oleg Dolzhenko,O,125,,,,,220,-225,,220,,,,,,,220,125,M,Олег Долженко,1973,No,Raw,B
3,Georgiy Pavlovych,O,114.3,,,,,190,200,-210,200,,,,,,,200,125,M,Георгій Павлович,1986,No,Raw,B
1,Alexander Chekachkov,M1,99.1,,,,,160,,,160,,,,,,,160,100,M,Александр Чекачков,1971,No,Raw,B
1,Dmytro Golovynskyy,O,132,,,,,250,265,-273,265,,,,,,,265,140,M,Дмитро Головинський,1988,No,Raw,B
2,Dmytro Kosenko,O,138,,,,,197.5,207.5,210,210,,,,,,,210,140,M,Дмитро Косенко,1979,No,Raw,B
1,Vladyslav Shmyglo,T3,158,,,,,-180,190,-200,190,,,,,,,190,140+,M,Владислав Шмигло,1994,No,Raw,B
1,Sergiy Veselovskiy,O,143.5,,,,,210,220,230,230,,,,,,,230,140+,M,Сергій Веселовський,1967,No,Raw,B
2,Viktor Kochmar,O,149,,,,,210,220,,220,,,,,,,220,140+,M,Віктор Кочмар,1970,No,Raw,B
1,Viktor Kochmar,M1,149,,,,,210,220,,220,,,,,,,220,140+,M,Віктор Кочмар,1970,No,Raw,B
1,Sergiy Veselovskiy,M2,143.5,,,,,210,220,230,230,,,,,,,230,140+,M,Сергій Веселовський,1967,No,Raw,B
1,Galyna Rogatska,O,67.5,,,,,80,-87.5,87.5,87.5,,,,,,,87.5,67.5,F,Галина Рогацька,1986,Yes,Multi-ply,B
2,Iryna Zhelyazkova,O,66.5,,,,,85,-90,-95,85,,,,,,,85,67.5,F,Ірина Желязкова,1984,Yes,Multi-ply,B
DQ,Inna Yudina,O,59.9,,,,,-90,-90,-90,,,,,,,,,60,F,Інна Юдіна,1978,Yes,Multi-ply,B
1,Yegor Kurochkin,T1,42.5,,,,,40,45,-50,45,,,,,,,45,52,M,Єгор Курочкін,1999,Yes,Multi-ply,B
1,Andriy Denisov,J,64.3,,,,,130,-140,-140,130,,,,,,,130,67.5,M,Андрій Денисов,1989,Yes,Multi-ply,B
1,Mykola Belov,T1,70.1,,,,,-130,140,-145,140,,,,,,,140,75,M,Микола Бєлов,1997,Yes,Multi-ply,B
1,Anton Popov,J,73.4,,,,,145,150,152.5,152.5,,,,,,,152.5,75,M,Антон Попов,1989,Yes,Multi-ply,B
2,Vitaliy Tytska,J,71.3,,,,,105,110,-115,110,,,,,,,110,75,M,Віталій Тицька,1992,Yes,Multi-ply,B
1,Svyatoslav Ogrenchuk,O,75,,,,,-170,172.5,180,180,,,,,,,180,75,M,Святослав Огренчук,1978,Yes,Multi-ply,B
2,Anton Fedorenko,O,73.9,,,,,170,-177.5,-177.5,170,,,,,,,170,75,M,Антон Федоренко,1985,Yes,Multi-ply,B
3,Artem Sarzhan,O,74.9,,,,,142.5,147.5,150,150,,,,,,,150,75,M,Артем Саржан,1984,Yes,Multi-ply,B
1,Anton Legenya,T3,81.4,,,,,120,132.5,-140,132.5,,,,,,,132.5,82.5,M,Антон Легеня,1993,Yes,Multi-ply,B
1,Valentin Dzhumaylo,J,82,,,,,192.5,-205,-205,192.5,,,,,,,192.5,82.5,M,Валентин Джумайло,1993,Yes,Multi-ply,B
1,Valeriy Fursa,O,81,,,,,210,-215,215,215,,,,,,,215,82.5,M,Валерій Фурса,1987,Yes,Multi-ply,B
2,Andriy Dyatlov,O,79,,,,,185,195,-205,195,,,,,,,195,82.5,M,Андрій Дятлов,1985,Yes,Multi-ply,B
DQ,Sergiy Baranenko,O,78.2,,,,,-190,-190,-190,,,,,,,,,82.5,M,Сергій Бараненко,1983,Yes,Multi-ply,B
1,Gennadiy Popov,T3,85.4,,,,,-150,150,-160,150,,,,,,,150,90,M,Геннадій Попов,1994,Yes,Multi-ply,B
1,Gennadiy Yazev,J,89.3,,,,,190,200,-205,200,,,,,,,200,90,M,Геннадій Язєв,1990,Yes,Multi-ply,B
1,Denis Mazur,O,90,,,,,160,170,175,175,,,,,,,175,90,M,Денис Мазур,1985,Yes,Multi-ply,B
2,Maxym Trokhymchuk,O,90,,,,,140,-145,-145,140,,,,,,,140,90,M,Максим Трохимчук,1981,Yes,Multi-ply,B
DQ,Mykhaylo Ulytskyy,M1,90,,,,,-200,-200,,,,,,,,,,90,M,Михайло Улицький,1969,Yes,Multi-ply,B
DQ,Borys Kovbasyuk,M2,88.3,,,,,-195,-195,-195,,,,,,,,,90,M,Борис Ковбасюк,1966,Yes,Multi-ply,B
1,Elman Gadzhiev,M3,89.2,,,,,207.5,-220,-220,207.5,,,,,,,207.5,90,M,Ельман Гаджієв,1959,Yes,Multi-ply,B
DQ,Vyacheslav Panchuk,J,96.2,,,,,-207.5,-207.5,-207.5,,,,,,,,,100,M,Вячеслав Панчук,1992,Yes,Multi-ply,B
1,Yuriy Muzychenko,O,94.7,,,,,140,150,160,160,,,,,,,160,100,M,Юрій Музиченко,1986,Yes,Multi-ply,B
1,Volodimir Kolyada,O,106,,,,,200,-210,-210,200,,,,,,,200,110,M,Володимир Коляда,1983,Yes,Multi-ply,B
2,Andriy Chekachkov,O,110,,,,,160,170,180,180,,,,,,,180,110,M,Андрій Чекачков,1980,Yes,Multi-ply,B
1,Andriy Lomnitskiy,O,111.8,,,,,255,-265,-265,255,,,,,,,255,125,M,Андрій Ломницький,1980,Yes,Multi-ply,B
1,Oleksandr Blagovidov,M1,112,,,,,240,-250,-250,240,,,,,,,240,125,M,Олександр Благовидов,1971,Yes,Multi-ply,B
DQ,Olexiy Gornyy,J,64,,,,,,,,,,,,,,,,67.5,M,Олексій Горний,1992,No,Multi-ply,B
1,Stanislav Marochko,O,66.9,,,,,150,155,160,160,,,,,,,160,67.5,M,Станіслав Марочко,1981,No,Multi-ply,B
1,Oleksandr Kovtun,J,70.5,,,,,-130,140,-150,140,,,,,,,140,75,M,Олександр Ковтун,1991,No,Multi-ply,B
1,Roman Pelykh,O,74,,,,,225,-240,-250.5,225,,,,,,,225,75,M,Роман Пелих,1985,No,Multi-ply,B
DQ,Denys Rekhletskyy,J,77,,,,,-200,-200,-200,,,,,,,,,82.5,M,Денис Рехлецький,1991,No,Multi-ply,B
1,Sergiy Naleykin,O,82.5,,,,,300,-320,-320,300,,,,,,,300,82.5,M,Сергій Налейкін,1981,No,Multi-ply,B
2,Oleksiy Slyuschenko,O,78,,,,,165,175,185,185,,,,,,,185,82.5,M,Олексій Слющенко,1984,No,Multi-ply,B
3,Valeriy Komogortsev,O,80.3,,,,,170,-180,-180,170,,,,,,,170,82.5,M,Валерій Комогорцев,1978,No,Multi-ply,B
1,Volodymyr Martynenko,T2,83.7,,,,,130,140,150,150,,,,,,,150,90,M,Володимир Мартиненко,1996,No,Multi-ply,B
1,Vitaliy Sobkovskiy,J,83.5,,,,,182.5,190,-195,190,,,,,,,190,90,M,Віталій Собковський,1991,No,Multi-ply,B
1,Oleksandr Lytvynenko,O,90,,,,,200,210,220,220,,,,,,,220,90,M,Олександр Литвиненко,1978,No,Multi-ply,B
DQ,Roman Plakhotnyuk,O,87,,,,,-260,-260,-260,,,,,,,,,90,M,Роман Плахотнюк,1986,No,Multi-ply,B
1,Sergiy Kazenko,T3,100,,,,,-160,-160,160,160,,,,,,,160,100,M,Сергій Казенко,1994,No,Multi-ply,B
1,Sergiy Ivanov,J,98,,,,,290,-305,-305,290,,,,,,,290,100,M,Сергій Іванов,1990,No,Multi-ply,B
DQ,Ivan Malovychko,J,94.5,,,,,-250,-250,-250,,,,,,,,,100,M,Іван Маловичко,1990,No,Multi-ply,B
1,Sergey Didovyk,O,99.2,,,,,300,310,-320,310,,,,,,,310,100,M,Сергій Дідовик,1978,No,Multi-ply,B
2,Sergiy Ivanov,O,98,,,,,290,-305,-305,290,,,,,,,290,100,M,Сергій Іванов,1990,No,Multi-ply,B
3,Oleg Zhulynskyy,O,97.6,,,,,240,250,-260,250,,,,,,,250,100,M,Олег Жулинський,1980,No,Multi-ply,B
DQ,Sergiy Skoryk,M1,99,,,,,-310,-320,-320,,,,,,,,,100,M,Сергій Скорик,1970,No,Multi-ply,B
1,Andriy Prykhodko,O,110,,,,,240,250,-262.5,250,,,,,,,250,110,M,Андрій Приходько,1981,No,Multi-ply,B
DQ,Yevgen Savchenko,O,103.5,,,,,-330,-330,-330,,,,,,,,,110,M,Євген Савченко,1989,No,Multi-ply,B
DQ,Stanislav Nikolaenko,O,110,,,,,-260,-260,-260,,,,,,,,,110,M,Станіслав Ніколаєнко,1978,No,Multi-ply,B
DQ,Anton Begalko,O,104.6,,,,,,,,,,,,,,,,110,M,Антон Бегалко,1986,No,Multi-ply,B
1,Oleksiy Syzonenko,O,124,,,,,300,-310,310,310,,,,,,,310,125,M,Олексій Сизоненко,1988,No,Multi-ply,B
2,Alexander Chekachkov,O,114.7,,,,,230,-240,-240,230,,,,,,,230,125,M,Александр Чекачков,1971,No,Multi-ply,B
1,Alexander Chekachkov,M1,114.7,,,,,230,-240,-240,230,,,,,,,230,125,M,Александр Чекачков,1971,No,Multi-ply,B
1,Dmytro Sharoyko,O,138.2,,,,,320,-340,-340,320,,,,,,,320,140,M,Дмитро Шаройко,1972,No,Multi-ply,B
2,Sergiy Laptev,O,125.3,,,,,-250,-260,260,260,,,,,,,260,140,M,Сергій Лаптєв,1974,No,Multi-ply,B
3,Vadym Filippov,O,125.6,,,,,-190,-190,190,190,,,,,,,190,140,M,Вадим Філіппов,1973,No,Multi-ply,B
1,Dmytro Sharoyko,M1,138.2,,,,,320,-340,-340,320,,,,,,,320,140,M,Дмитро Шаройко,1972,No,Multi-ply,B
